%YAML 1.1
%TAG !u! tag:unity3d.com,2011:
--- !u!74 &7400000
AnimationClip:
  m_ObjectHideFlags: 0
  m_CorrespondingSourceObject: {fileID: 0}
  m_PrefabInstance: {fileID: 0}
  m_PrefabAsset: {fileID: 0}
  m_Name: Player_Run
  serializedVersion: 6
  m_Legacy: 0
  m_Compressed: 0
  m_UseHighQualityCurve: 1
  m_RotationCurves: []
  m_CompressedRotationCurves: []
  m_EulerCurves: []
  m_PositionCurves: []
  m_ScaleCurves: []
  m_FloatCurves: []
  m_PPtrCurves:
  - curve:
    - time: 0
      value: {fileID: 7453936072502254146, guid: 4e9a20c1495fe2d46bbf3228fd54ffb2, type: 3}
    - time: 0.016666668
      value: {fileID: -9031255645428827078, guid: 4e9a20c1495fe2d46bbf3228fd54ffb2, type: 3}
    - time: 0.033333335
      value: {fileID: -1349519792252718777, guid: 4e9a20c1495fe2d46bbf3228fd54ffb2, type: 3}
    - time: 0.05
      value: {fileID: -6631808862115875892, guid: 4e9a20c1495fe2d46bbf3228fd54ffb2, type: 3}
    - time: 0.06666667
      value: {fileID: 678295552622502625, guid: 4e9a20c1495fe2d46bbf3228fd54ffb2, type: 3}
    - time: 0.083333336
      value: {fileID: 5983755030847457232, guid: 4e9a20c1495fe2d46bbf3228fd54ffb2, type: 3}
    - time: 0.1
      value: {fileID: -319185305279629761, guid: 4e9a20c1495fe2d46bbf3228fd54ffb2, type: 3}
    - time: 0.11666667
      value: {fileID: -440441440461859641, guid: 4e9a20c1495fe2d46bbf3228fd54ffb2, type: 3}
    - time: 0.13333334
      value: {fileID: -8288583216847251301, guid: 4e9a20c1495fe2d46bbf3228fd54ffb2, type: 3}
    - time: 0.15
      value: {fileID: -491001196755324728, guid: 4e9a20c1495fe2d46bbf3228fd54ffb2, type: 3}
    - time: 0.16666667
      value: {fileID: 5188619411653317371, guid: 4e9a20c1495fe2d46bbf3228fd54ffb2, type: 3}
    - time: 0.18333334
      value: {fileID: 3504558713349401504, guid: 4e9a20c1495fe2d46bbf3228fd54ffb2, type: 3}
    attribute: m_Sprite
    path: 
    classID: 212
    script: {fileID: 0}
  m_SampleRate: 60
  m_WrapMode: 0
  m_Bounds:
    m_Center: {x: 0, y: 0, z: 0}
    m_Extent: {x: 0, y: 0, z: 0}
  m_ClipBindingConstant:
    genericBindings:
    - serializedVersion: 2
      path: 0
      attribute: 0
      script: {fileID: 0}
      typeID: 212
      customType: 23
      isPPtrCurve: 1
    pptrCurveMapping:
    - {fileID: 7453936072502254146, guid: 4e9a20c1495fe2d46bbf3228fd54ffb2, type: 3}
    - {fileID: -9031255645428827078, guid: 4e9a20c1495fe2d46bbf3228fd54ffb2, type: 3}
    - {fileID: -1349519792252718777, guid: 4e9a20c1495fe2d46bbf3228fd54ffb2, type: 3}
    - {fileID: -6631808862115875892, guid: 4e9a20c1495fe2d46bbf3228fd54ffb2, type: 3}
    - {fileID: 678295552622502625, guid: 4e9a20c1495fe2d46bbf3228fd54ffb2, type: 3}
    - {fileID: 5983755030847457232, guid: 4e9a20c1495fe2d46bbf3228fd54ffb2, type: 3}
    - {fileID: -319185305279629761, guid: 4e9a20c1495fe2d46bbf3228fd54ffb2, type: 3}
    - {fileID: -440441440461859641, guid: 4e9a20c1495fe2d46bbf3228fd54ffb2, type: 3}
    - {fileID: -8288583216847251301, guid: 4e9a20c1495fe2d46bbf3228fd54ffb2, type: 3}
    - {fileID: -491001196755324728, guid: 4e9a20c1495fe2d46bbf3228fd54ffb2, type: 3}
    - {fileID: 5188619411653317371, guid: 4e9a20c1495fe2d46bbf3228fd54ffb2, type: 3}
    - {fileID: 3504558713349401504, guid: 4e9a20c1495fe2d46bbf3228fd54ffb2, type: 3}
  m_AnimationClipSettings:
    serializedVersion: 2
    m_AdditiveReferencePoseClip: {fileID: 0}
    m_AdditiveReferencePoseTime: 0
    m_StartTime: 0
    m_StopTime: 0.2
    m_OrientationOffsetY: 0
    m_Level: 0
    m_CycleOffset: 0
    m_HasAdditiveReferencePose: 0
    m_LoopTime: 1
    m_LoopBlend: 0
    m_LoopBlendOrientation: 0
    m_LoopBlendPositionY: 0
    m_LoopBlendPositionXZ: 0
    m_KeepOriginalOrientation: 0
    m_KeepOriginalPositionY: 1
    m_KeepOriginalPositionXZ: 0
    m_HeightFromFeet: 0
    m_Mirror: 0
  m_EditorCurves: []
  m_EulerEditorCurves: []
  m_HasGenericRootTransform: 0
  m_HasMotionFloatCurves: 0
  m_Events: []
